…
### Access EFI snapshots of NOAA forecasts at NEON sites

Many forecasts will want to make use of weather forecasts as potential
drivers. EFI downscales NOAA GEFS 35-day forecast products at each NEON
site and makes this data available. These helper functions provide
convenient access for downloading and stacking the individual forecast
files.

``` r
aq_sites <- unique(aquatic$siteID)
download_noaa(aq_sites)
noaa_fc <- stack_noaa()
noaa_fc
#> # A tibble: 8,590 x 18
#>    model interval siteID startDate endDate ensemble air_temperature air_pressure
#>    <chr> <chr>    <chr>  <chr>     <chr>   <chr>              <dbl>        <dbl>
#>  1 NOAA… 6hr      BARC   2021-03-… 2021-0… ens00.nc            295.      101473.
#>  2 NOAA… 6hr      BARC   2021-03-… 2021-0… ens00.nc            291.      101595.
#>  3 NOAA… 6hr      BARC   2021-03-… 2021-0… ens00.nc            289.      101595.
#>  4 NOAA… 6hr      BARC   2021-03-… 2021-0… ens00.nc            302.      101602.
#>  5 NOAA… 6hr      BARC   2021-03-… 2021-0… ens00.nc            296.      101479.
#>  6 NOAA… 6hr      BARC   2021-03-… 2021-0… ens00.nc            292.      101553.
#>  7 NOAA… 6hr      BARC   2021-03-… 2021-0… ens00.nc            290.      101461.
#>  8 NOAA… 6hr      BARC   2021-03-… 2021-0… ens00.nc            302.      101408.
#>  9 NOAA… 6hr      BARC   2021-03-… 2021-0… ens00.nc            296.      101281.
#> 10 NOAA… 6hr      BARC   2021-03-… 2021-0… ens00.nc            291.      101360.
#> # … with 8,580 more rows, and 10 more variables: relative_humidity <dbl>,
#> #   surface_downwelling_longwave_flux_in_air <dbl>,
#> #   surface_downwelling_shortwave_flux_in_air <dbl>, precipitation_flux <dbl>,
#> #   specific_humidity <dbl>, cloud_area_fraction <dbl>, wind_speed <dbl>,
#> #   time <dbl>, latitude <dbl>, longitude <dbl>
```
…
### Quickstart

``` r
library(neonstore)
```

Discover data products of interest:

``` r
products <- neon_products()

i <- grepl("Populations", products$themes)
products[i, c("productCode", "productName")]
#> # A tibble: 50 x 2
#>    productCode   productName                                              
#>    <chr>         <chr>                                                    
#>  1 DP1.00033.001 Phenology images                                         
#>  2 DP1.10003.001 Breeding landbird point counts                           
#>  3 DP1.10010.001 Coarse downed wood log survey                            
#>  4 DP1.10020.001 Ground beetle sequences DNA barcode                      
#>  5 DP1.10022.001 Ground beetles sampled from pitfall traps                
#>  6 DP1.10026.001 Plant foliar traits                                      
#>  7 DP1.10033.001 Litterfall and fine woody debris production and chemistry
#>  8 DP1.10038.001 Mosquito sequences DNA barcode                           
#>  9 DP1.10041.001 Mosquito-borne pathogen status                           
#> 10 DP1.10043.001 Mosquitoes sampled from CO2 traps                        
#> # … with 40 more rows
…
Download all data files in the bird survey data products.

``` r
neon_download("DP1.10003.001")
#>   comparing hashes against local file index...
#>   updating release manifest...
```

View your store of NEON products:

``` r
neon_index()
#> # A tibble: 854 x 15
#>    product  site  table   type  ext   month timestamp           horizontalPosit…
#>    <chr>    <chr> <chr>   <chr> <chr> <chr> <dttm>                         <dbl>
#>  1 DP1.100… BART  brd_co… basic csv   2015… 2020-12-23 14:17:30               NA
#>  2 DP1.100… BART  brd_co… basic csv   2016… 2020-12-23 14:17:14               NA
#>  3 DP1.100… BART  brd_co… basic csv   2017… 2020-12-23 14:17:36               NA
#>  4 DP1.100… BART  brd_co… basic csv   2018… 2020-12-23 14:17:21               NA
#>  5 DP1.100… BART  brd_co… basic csv   2019… 2020-12-23 14:17:45               NA
#>  6 DP1.100… BART  brd_co… basic csv   2020… 2020-12-23 14:17:03               NA
#>  7 DP1.100… BART  brd_co… basic csv   2020… 2020-12-23 14:17:41               NA
#>  8 DP1.100… BART  brd_pe… basic csv   2015… 2020-12-23 14:17:30               NA
#>  9 DP1.100… BART  brd_pe… basic csv   2016… 2020-12-23 14:17:14               NA
#> 10 DP1.100… BART  brd_pe… basic csv   2017… 2020-12-23 14:17:36               NA
#> # … with 844 more rows, and 7 more variables: verticalPosition <dbl>,
#> #   samplingInterval <chr>, date_range <chr>, path <chr>, md5 <chr>,
#> #   crc32 <chr>, release <chr>
```
…
Alternately, we could import all data tables associated with a given
product:

``` r
neon_store(product = "DP1.10003.001")
#>   importing brd_countdata-basic-DP1.10003.001...
#>   importing brd_perpoint-basic-DP1.10003.001...
```

Access an imported table using `neon_table()` instead of `neon_read()`:

``` r
neon_table("brd_countdata")
#> # A tibble: 203,220 x 23
#>    uid                namedLocation     domainID siteID plotID plotType  pointID
#>    <chr>              <chr>             <chr>    <chr>  <chr>  <chr>     <chr>  
#>  1 01cef6c1-5851-407… HEAL_006.birdGri… D19      HEAL   HEAL_… distribu… C1     
#>  2 43990e9a-1412-427… HEAL_006.birdGri… D19      HEAL   HEAL_… distribu… C1     
#>  3 d4f59f3c-e3f1-4a7… HEAL_006.birdGri… D19      HEAL   HEAL_… distribu… C1     
#>  4 4ad44b7d-1eb6-465… HEAL_006.birdGri… D19      HEAL   HEAL_… distribu… C1     
#>  5 944a3e0e-08de-497… HEAL_006.birdGri… D19      HEAL   HEAL_… distribu… C1     
#>  6 d4cb0f22-923b-449… HEAL_006.birdGri… D19      HEAL   HEAL_… distribu… C1     
#>  7 0cc69b4f-650f-4f7… HEAL_006.birdGri… D19      HEAL   HEAL_… distribu… B1     
#>  8 c6367f2f-8b74-402… HEAL_006.birdGri… D19      HEAL   HEAL_… distribu… B1     
#>  9 406e8277-2c18-4b2… HEAL_006.birdGri… D19      HEAL   HEAL_… distribu… B1     
#> 10 ef879541-c8d5-41c… HEAL_006.birdGri… D19      HEAL   HEAL_… distribu… B1     
#> # … with 203,210 more rows, and 16 more variables: startDate <dttm>,
#> #   eventID <chr>, pointCountMinute <dbl>, targetTaxaPresent <chr>,
#> #   taxonID <chr>, scientificName <chr>, taxonRank <chr>, vernacularName <chr>,
#> #   observerDistance <dbl>, detectionMethod <chr>, visualConfirmation <chr>,
#> #   sexOrAge <chr>, clusterSize <dbl>, clusterCode <chr>, identifiedBy <chr>,
#> #   file <chr>
```
…
``` r
library(dplyr)
#> 
#> Attaching package: 'dplyr'
#> The following objects are masked from 'package:stats':
#> 
#>     filter, lag
#> The following objects are masked from 'package:base':
#> 
#>     intersect, setdiff, setequal, union
con <- neon_db()
brd <- tbl(con, "brd_countdata-basic-DP1.10003.001")
brd %>% filter(siteID == "ORNL")
#> # A tibble: 8,797 x 23
#>    uid                namedLocation     domainID siteID plotID plotType  pointID
#>    <chr>              <chr>             <chr>    <chr>  <chr>  <chr>     <chr>  
#>  1 33425600-9ce1-4a9… ORNL_002.birdGri… D07      ORNL   ORNL_… distribu… A1     
#>  2 faf5ee98-43e9-40f… ORNL_002.birdGri… D07      ORNL   ORNL_… distribu… A1     
#>  3 2dc63a4a-3da1-4e0… ORNL_002.birdGri… D07      ORNL   ORNL_… distribu… A1     
#>  4 7952192b-55b4-48f… ORNL_002.birdGri… D07      ORNL   ORNL_… distribu… A1     
#>  5 41bf843e-3433-4d0… ORNL_002.birdGri… D07      ORNL   ORNL_… distribu… A1     
#>  6 e88d8ada-e43a-409… ORNL_002.birdGri… D07      ORNL   ORNL_… distribu… A1     
#>  7 04604bac-dd88-4d1… ORNL_002.birdGri… D07      ORNL   ORNL_… distribu… A1     
#>  8 05a8d535-3f59-413… ORNL_002.birdGri… D07      ORNL   ORNL_… distribu… A1     
#>  9 b5cccafa-acbf-41e… ORNL_002.birdGri… D07      ORNL   ORNL_… distribu… A1     
#> 10 63d9e30e-ab6c-41b… ORNL_002.birdGri… D07      ORNL   ORNL_… distribu… A1     
#> # … with 8,787 more rows, and 16 more variables: startDate <dttm>,
#> #   eventID <chr>, pointCountMinute <dbl>, targetTaxaPresent <chr>,
#> #   taxonID <chr>, scientificName <chr>, taxonRank <chr>, vernacularName <chr>,
#> #   observerDistance <dbl>, detectionMethod <chr>, visualConfirmation <chr>,
#> #   sexOrAge <chr>, clusterSize <dbl>, clusterCode <chr>, identifiedBy <chr>,
#> #   file <chr>
```
…
We can take a look at all `laz` LIDAR files:

``` r
df %>% 
  filter(EXT == "laz")
#> # A tibble: 330 x 31
#>    NEON  DOM   SITE  DPL   PRNUM REV   DESC  YYYY_MM PKGTYPE GENTIME EXT   name 
#>    <chr> <chr> <chr> <chr> <chr> <chr> <chr> <chr>   <chr>   <chr>   <chr> <chr>
#>  1 NEON  D10   CPER  DP1   <NA>  <NA>  clas… <NA>    <NA>    <NA>    laz   NEON…
#>  2 NEON  D10   CPER  DP1   <NA>  <NA>  clas… <NA>    <NA>    <NA>    laz   NEON…
#>  3 NEON  D10   CPER  DP1   <NA>  <NA>  clas… <NA>    <NA>    <NA>    laz   NEON…
#>  4 NEON  D10   CPER  DP1   <NA>  <NA>  clas… <NA>    <NA>    <NA>    laz   NEON…
#>  5 NEON  D10   CPER  DP1   <NA>  <NA>  uncl… <NA>    <NA>    <NA>    laz   NEON…
#>  6 NEON  D10   CPER  DP1   <NA>  <NA>  clas… <NA>    <NA>    <NA>    laz   NEON…
#>  7 NEON  D10   CPER  DP1   <NA>  <NA>  clas… <NA>    <NA>    <NA>    laz   NEON…
#>  8 NEON  D10   CPER  DP1   <NA>  <NA>  clas… <NA>    <NA>    <NA>    laz   NEON…
#>  9 NEON  D10   CPER  DP1   <NA>  <NA>  clas… <NA>    <NA>    <NA>    laz   NEON…
#> 10 NEON  D10   CPER  DP1   <NA>  <NA>  uncl… <NA>    <NA>    <NA>    laz   NEON…
#> # … with 320 more rows, and 19 more variables: MISC <chr>, HOR <chr>,
#> #   VER <chr>, TMI <chr>, YYYY_MM_DD <chr>, DATE_RANGE <chr>, FLHTSTRT <chr>,
#> #   EHCCCCCC <chr>, IMAGEDATETIME <chr>, NNNN <chr>, NNN <chr>, R <chr>,
#> #   FLIGHTSTRT <chr>, EEEEEE <chr>, NNNNNNN <chr>, FLHTDATE <chr>,
#> #   FFFFFF <chr>, README <lgl>, COMPRESSION <lgl>
```
…
