…
The challenge uses the following NEON data products:
- [DP1.20264.001](https://data.neonscience.org/data-products/DP1.20264.001){target="_blank"}: Temperature at specific depth in surface water
- [DP1.20288.001](https://data.neonscience.org/data-products/DP1.20288.001){target="_blank"}: Water quality (includes oxygen and chlorophyll-a)   

A file with previously released NEON data that has been processed into targets is provided below. The target script can be found [here](https://github.com/eco4cast/neon4cast-aquatics/blob/master/02_generate_targets_aquatics.R){target="_blank"}. The same processing will be applied to new data that are used for forecast evaluation. 

Here is the format of the target file


```r
readr::read_csv("https://data.ecoforecast.org/targets/aquatics/aquatics-targets.csv.gz")
```

```
## # A tibble: 9,623 × 10
##    time       siteID oxygen temperature  chla oxygen_sd temperature_sd chla_sd
##    <date>     <chr>   <dbl>       <dbl> <dbl>     <dbl>          <dbl>   <dbl>
##  1 2017-08-27 BARC       NA        31.4    NA        NA        0.00162      NA
##  2 2017-08-27 BARC       NA        31.5    NA        NA        0.00121      NA
##  3 2017-08-28 BARC       NA        31.1    NA        NA        0.00155      NA
##  4 2017-08-28 BARC       NA        31.1    NA        NA        0.00117      NA
##  5 2017-08-29 BARC       NA        31.2    NA        NA        0.00211      NA
##  6 2017-08-29 BARC       NA        31.1    NA        NA        0.00168      NA
##  7 2017-08-30 BARC       NA        31.5    NA        NA        0.00208      NA
##  8 2017-08-30 BARC       NA        31.4    NA        NA        0.00210      NA
##  9 2017-08-31 BARC       NA        31.7    NA        NA        0.00193      NA
## 10 2017-08-31 BARC       NA        31.7    NA        NA        0.00176      NA
## # … with 9,613 more rows, and 2 more variables: depth_oxygen <dbl>,
## #   depth_temperature <dbl>
```
…
