…
Each image has a defined “region of interest’ (ROI).  An ROI is a set of pixels that isolates particular features in the image (i.e., a set of deciduous trees in a mixed forest). The ROI of “DB_1000” for the below top-of-canopy PhenoCams will be used to assess the forecasts’ accuracy.  The mid-day (noon) mean GCC and GCC standard deviation for the “DB_1000” ROI will be used for evaluation.

All data in the supplied file is available to build and evaluate models before submitting a forecast to challenge.  Once new data becomes avialable, the data are appended to the existing file.  Within the challenge scoring, only the new data are used to evaluate previously submitted forecasts.

### Target file

Here is the format of the target file


```r
readr::read_csv("https://data.ecoforecast.org/targets/phenology/phenology-targets.csv.gz", guess_max = 1e6)
```

```
## # A tibble: 14,168 x 6
##    time       siteID gcc_90 rcc_90  gcc_sd  rcc_sd
##    <date>     <chr>   <dbl>  <dbl>   <dbl>   <dbl>
##  1 2016-12-13 HARV    0.329  0.375 0.00157 0.00388
##  2 2016-12-14 HARV    0.328  0.411 0.00157 0.00388
##  3 2016-12-15 HARV    0.330  0.401 0.00157 0.00388
##  4 2016-12-16 HARV    0.329  0.398 0.00157 0.00388
##  5 2016-12-17 HARV    0.332  0.351 0.00157 0.00388
##  6 2016-12-18 HARV    0.332  0.353 0.00157 0.00388
##  7 2016-12-19 HARV    0.329  0.399 0.00157 0.00388
##  8 2016-12-20 HARV    0.330  0.405 0.00157 0.00388
##  9 2016-12-21 HARV    0.329  0.412 0.00157 0.00388
## 10 2016-12-22 HARV    0.329  0.412 0.00157 0.00388
## # … with 14,158 more rows
```
…
