…
The challenge uses the following NEON data products:
[DP1.20264.001](https://data.neonscience.org/data-products/DP1.20264.001){target="_blank"}: Temperature at specific depth in surface water   
[DP1.20288.001](https://data.neonscience.org/data-products/DP1.20288.001){target="_blank"}: Water quality

A file with previously released NEON data that has been processed into targets is provided below. The target script can be found here. The same processing will be applied to new data that are used for forecast evaluation. Before the Aquatics challenge begins, a [processing script](https://github.com/eco4cast/neon4cast-aquatics/blob/master/02_generate_targets_aquatics.R){target="_blank"} is available in the neon4cast-aquatics GitHub repository.

Here is the format of the target file


```r
readr::read_csv("https://data.ecoforecast.org/targets/aquatics/aquatics-targets.csv.gz")
```

```
## # A tibble: 2,618 x 9
##    time       siteID oxygen temperature oxygen_sd temperature_sd depth_oxygen
##    <date>     <chr>   <dbl>       <dbl>     <dbl>          <dbl>        <dbl>
##  1 2017-10-20 BARC     6.01        26.4   0.0114        0.00104          1.19
##  2 2017-10-21 BARC     6.06        26.3   0.00717       0.000986         1.20
##  3 2017-10-22 BARC     6.13        26.4   0.00721       0.00119          1.19
##  4 2017-10-23 BARC     6.43        26.6   0.00765       0.000944         1.16
##  5 2017-10-24 BARC     6.31        26.4   0.00746       0.00118          1.11
##  6 2017-10-25 BARC     6.27        25.9   0.00737       0.00107          1.13
##  7 2017-10-26 BARC     6.30        25.0   0.00743       0.00105          1.19
##  8 2017-10-27 BARC     6.41        24.3   0.00762       0.00104          1.22
##  9 2017-10-28 BARC     6.48        24.1   0.00766       0.00111          1.17
## 10 2017-10-29 BARC     6.64        23.8   0.00783       0.00101          1.10
## # … with 2,608 more rows, and 2 more variables: depth_temperature <dbl>,
## #   neon_product_ids <chr>
```
…
