…
Tick drags occur every three weeks at the NEON sites used in this challenge. The sampling season at each site is determined by phenological milestones, beginning and ending within two weeks of green-up and senescence, respectively. The 1m^2 cloth is dragged for 160m (and at least 80m), and ticks are collected intermittently. They are then sent to a lab for taxonomic identification. Ticks are then identified by life stage and taxonomic rank. The target data is for *Amblyomma americanum* nymphs that were identified to the species level; i.e. ticks identified as being in the *Amblyomma* genus are not included. 

**Use of 2021 data:** The forecasting challenge is for the 2021 field season, thus environmental covariates are known. However, in the spirit of keeping this as much of a “forecasting” challenge as possible, we ask that for four week forecast period teams use the NOAA GEFS forecasting data. 

### Target file

Here is the format of the target file


```r
readr::read_csv("https://data.ecoforecast.org/targets/ticks/ticks-targets.csv.gz", guess_max = 1e6)
```

```
## # A tibble: 3,024 × 21
##     Year epiWeek yearWeek plotID   siteID nlcdClass       decimalLatitude
##    <dbl>   <dbl>    <dbl> <chr>    <chr>  <chr>                     <dbl>
##  1  2015      37   201537 BLAN_005 BLAN   deciduousForest            39.1
##  2  2015      38   201538 BLAN_005 BLAN   deciduousForest            39.1
##  3  2015      39   201539 BLAN_005 BLAN   deciduousForest            39.1
##  4  2015      40   201540 BLAN_005 BLAN   deciduousForest            39.1
##  5  2015      41   201541 BLAN_005 BLAN   deciduousForest            39.1
##  6  2015      42   201542 BLAN_005 BLAN   deciduousForest            39.1
##  7  2015      43   201543 BLAN_005 BLAN   deciduousForest            39.1
##  8  2015      44   201544 BLAN_005 BLAN   deciduousForest            39.1
##  9  2015      45   201545 BLAN_005 BLAN   deciduousForest            39.1
## 10  2015      46   201546 BLAN_005 BLAN   deciduousForest            39.1
## # … with 3,014 more rows, and 14 more variables: decimalLongitude <dbl>,
## #   elevation <dbl>, totalSampledArea <dbl>, amblyomma_americanum <lgl>,
## #   ixodes_scapularis <lgl>, time <date>, RHMin_precent <lgl>,
## #   RHMin_variance <lgl>, RHMax_precent <lgl>, RHMax_variance <lgl>,
## #   airTempMin_degC <lgl>, airTempMin_variance <lgl>, airTempMax_degC <lgl>,
## #   airTempMax_variance <lgl>
```
…
