…
The observation uncertainty estimates for nee and le are derived from the [PEcAN project](https://pecanproject.github.io/){target="_blank"} and can be used by `sd_nee <- nee_sd_intercept + nee_sd_slopeP * nee`.  They are not supplied by NEON.

Here is the download link and format of the `terrestrial_30min` target file:


```r
readr::read_csv("https://data.ecoforecast.org/targets/terrestrial_30min/terrestrial_30min-targets.csv.gz", guess_max = 1e6)
```

```
## # A tibble: 900,760 × 10
##    time                siteID    nee      le nee_sd_intercept nee_sd_slopeP
##    <dttm>              <chr>   <dbl>   <dbl>            <dbl>         <dbl>
##  1 2017-02-01 10:00:00 BART   -0.574 -0.413              1.13         0.205
##  2 2017-02-01 10:30:00 BART    0.297 -0.127              1.13         0.205
##  3 2017-02-01 11:00:00 BART   NA     NA                  1.13         0.205
##  4 2017-02-01 11:30:00 BART   NA     NA                  1.13         0.205
##  5 2017-02-01 12:00:00 BART    0.224 -0.0333             1.13         0.205
##  6 2017-02-01 12:30:00 BART    2.12   1.44               1.13         0.205
##  7 2017-02-01 13:00:00 BART    2.18   2.49               1.13         0.205
##  8 2017-02-01 13:30:00 BART   NA     NA                  1.13         0.205
##  9 2017-02-01 14:00:00 BART   NA     NA                  1.13         0.205
## 10 2017-02-01 14:30:00 BART   NA     NA                  1.13         0.205
## # … with 900,750 more rows, and 4 more variables: nee_sd_slopeN <dbl>,
## #   le_sd_intercept <dbl>, le_sd_slopeP <dbl>, le_sd_slopeN <dbl>
```
…
- `time`: YYYY-MM-DD (the day is determined using UTC time)  
- `siteID`: NEON site code (e.g., BART)  
- `nee`: g C m<sup>-2</sup> day<sup>-1</sup>  
- `le`:  W m<sup>-2</sup>  

Here is the download link and format of the `terrestrial_daily` target file


```r
readr::read_csv("https://data.ecoforecast.org/targets/terrestrial_daily/terrestrial_daily-targets.csv.gz", guess_max = 1e6)
```

```
## # A tibble: 18,770 × 4
##    time       siteID   nee    le
##    <date>     <chr>  <dbl> <dbl>
##  1 2017-02-01 BART      NA    NA
##  2 2017-02-01 CLBJ      NA    NA
##  3 2017-02-01 KONZ      NA    NA
##  4 2017-02-01 ORNL      NA    NA
##  5 2017-02-01 OSBS      NA    NA
##  6 2017-02-01 SJER      NA    NA
##  7 2017-02-01 SRER      NA    NA
##  8 2017-02-01 TALL      NA    NA
##  9 2017-02-01 UNDE      NA    NA
## 10 2017-02-01 WREF      NA    NA
## # … with 18,760 more rows
```
…
