…
The observation uncertainty estimates for nee and le are derived from the PECAN project and can be used by `sd_nee <- nee_sd_intercept + nee_sd_slopeP * nee`.  They are not supplied by NEON.

The standard derivation for the vswc (`vswc_sd`) is the uncertainty reported by NEON.

Here is the format of the target file


```r
readr::read_csv("https://data.ecoforecast.org/targets/terrestrial/terrestrial_30min-targets.csv.gz", guess_max = 1e6)
```

```
## # A tibble: 289,184 x 12
##    time                siteID    nee    le nee_sd_intercept nee_sd_slopeP
##    <dttm>              <chr>   <dbl> <dbl>            <dbl>         <dbl>
##  1 2017-02-01 15:00:00 BART    3.13   2.52            0.710         0.217
##  2 2017-02-01 15:30:00 BART   NA     NA               0.710         0.217
##  3 2017-02-01 16:00:00 BART   NA     NA               0.710         0.217
##  4 2017-02-01 16:30:00 BART    0.476  5.69            0.710         0.217
##  5 2017-02-01 17:00:00 BART   NA     NA               0.710         0.217
##  6 2017-02-01 17:30:00 BART    0.412  7.27            0.710         0.217
##  7 2017-02-01 18:00:00 BART    0.812 23.7             0.710         0.217
##  8 2017-02-01 18:30:00 BART   NA     NA               0.710         0.217
##  9 2017-02-01 19:00:00 BART    0.820 19.1             0.710         0.217
## 10 2017-02-01 19:30:00 BART    0.364  3.95            0.710         0.217
## # … with 289,174 more rows, and 6 more variables: nee_sd_slopeN <dbl>,
## #   le_sd_intercept <dbl>, le_sd_slopeP <dbl>, le_sd_slopeN <dbl>, vswc <dbl>,
## #   vswc_sd <dbl>
```
…
NEED TO ADD WHERE vswc_sd comes from


```r
readr::read_csv("https://data.ecoforecast.org/targets/terrestrial/terrestrial_daily-targets.csv.gz", guess_max = 1e6)
```

```
## # A tibble: 6,028 x 6
##    time       siteID   nee    le  vswc vswc_sd
##    <date>     <chr>  <dbl> <dbl> <dbl>   <dbl>
##  1 2017-02-01 BART      NA    NA    NA      NA
##  2 2017-02-01 KONZ      NA    NA    NA      NA
##  3 2017-02-01 OSBS      NA    NA    NA      NA
##  4 2017-02-01 SRER      NA    NA    NA      NA
##  5 2017-02-02 BART      NA    NA    NA      NA
##  6 2017-02-02 KONZ      NA    NA    NA      NA
##  7 2017-02-02 OSBS      NA    NA    NA      NA
##  8 2017-02-02 SRER      NA    NA    NA      NA
##  9 2017-02-03 BART      NA    NA    NA      NA
## 10 2017-02-03 KONZ      NA    NA    NA      NA
## # … with 6,018 more rows
```
…
