…
The data used for this challenge is a subset of the full NEON tick data set. While ticks of multiple species have been identified at most NEON sites, not all species-by-site combinations have enough non-zero observations to build adequate population models. Therefore, the targets for this challenge are *A. americanum* and *I. scapularis* nymphs, which represent the two most abundant species observed at NEON. Additionally, the plots that forecasts will be made are plots where these ticks have been identified at least three times each year from 2016 to 2018. The latency for taxonomic identifications of the NEON tick field data is roughly one year (meaning forecast for 2021 won’t be validated until 2022), and the 2020 field season was irregular due to the COVID-19 pandemic. Therefore, the target year of 2019 was chosen so that forecasts can be evaluated in a timely manner for a regular field season. 

**Use of 2019 data:** The forecasting challenge is for the 2019 field season, thus tick observations and environmental covariates are known. However, in the spirit of keeping this as much of a “forecasting” challenge as possible, 2019 data (tick and environmental covariates) can only be used in the timeline described below in the timeline section. For example, if a forecast is submitted on May 31st, and a team is using temperature as a covariate in their model, it is up to the team to forecast temperature from May 31st through the end of the season. This policy is in place because if forecasts use the observed temperature from May 31 through the end of the season in their forecast, these forecasts will be overconfident. 

### Target file

Here is the format of the target file


```r
readr::read_csv("https://data.ecoforecast.org/targets/ticks/ticks-targets.csv.gz", guess_max = 1e6)
```

```
## # A tibble: 2,501 x 21
##     Year epiWeek yearWeek plotID   siteID nlcdClass       decimalLatitude
##    <dbl>   <dbl>    <dbl> <chr>    <chr>  <chr>                     <dbl>
##  1  2015      37   201537 BLAN_005 BLAN   deciduousForest            39.1
##  2  2015      38   201538 BLAN_005 BLAN   deciduousForest            39.1
##  3  2015      39   201539 BLAN_005 BLAN   deciduousForest            39.1
##  4  2015      40   201540 BLAN_005 BLAN   deciduousForest            39.1
##  5  2015      41   201541 BLAN_005 BLAN   deciduousForest            39.1
##  6  2015      42   201542 BLAN_005 BLAN   deciduousForest            39.1
##  7  2015      43   201543 BLAN_005 BLAN   deciduousForest            39.1
##  8  2015      44   201544 BLAN_005 BLAN   deciduousForest            39.1
##  9  2015      45   201545 BLAN_005 BLAN   deciduousForest            39.1
## 10  2015      46   201546 BLAN_005 BLAN   deciduousForest            39.1
## # … with 2,491 more rows, and 14 more variables: decimalLongitude <dbl>,
## #   elevation <dbl>, totalSampledArea <dbl>, amblyomma_americanum <dbl>,
## #   ixodes_scapularis <dbl>, time <date>, RHMin_precent <dbl>,
## #   RHMin_variance <dbl>, RHMax_precent <dbl>, RHMax_variance <dbl>,
## #   airTempMin_degC <dbl>, airTempMin_variance <dbl>, airTempMax_degC <dbl>,
## #   airTempMax_variance <dbl>
```
…
