…
```
## # A tibble: 28,000 x 8
##    time       ensemble siteID oxygen temperature obs_flag forecast
##    <date>        <dbl> <chr>   <dbl>       <dbl>    <dbl>    <dbl>
##  1 2021-03-01        1 BARC     8.98        19.1        2        1
##  2 2021-03-01        2 BARC     8.67        21.6        2        1
##  3 2021-03-01        3 BARC     8.73        28.9        2        1
##  4 2021-03-01        4 BARC     8.12        28.2        2        1
##  5 2021-03-01        5 BARC     8.18        17.6        2        1
##  6 2021-03-01        6 BARC     8.70        34.1        2        1
##  7 2021-03-01        7 BARC     8.83        14.9        2        1
##  8 2021-03-01        8 BARC     8.25        23.7        2        1
##  9 2021-03-01        9 BARC     8.47        15.0        2        1
## 10 2021-03-01       10 BARC     8.68        26.3        2        1
## # … with 27,990 more rows, and 1 more variable: data_assimilation <dbl>
```
…
