10 Meteorology Inputs | NEON Ecological Forecasting Challenge
…
weather_1hr <- neon4cast::noaa_stage2()

## establishing connection to stage2/parquet at data.ecoforecast.org ...

## connected! Use dplyr functions to filter and summarise.
## Then, use collect() to read result into R

weather_1hr |> 
dplyr::filter(start_date == "2022-04-01" & site_id == "BART") |>
dplyr::collect()

## # A tibble: 204,920 × 13
##    site_id predicted variable height horizon ensem…¹ start_time          forec…²
##    <chr>       <dbl> <chr>    <chr>    <dbl>   <int> <dttm>              <chr>  
##  1 BART          341 surface… surfa…       0       1 2022-04-01 00:00:00 anl    
##  2 BART          341 surface… surfa…       1       1 2022-04-01 00:00:00 1-2 ho…
##  3 BART          341 surface… surfa…       2       1 2022-04-01 00:00:00 2-3 ho…
##  4 BART          349 surface… surfa…       3       1 2022-04-01 00:00:00 3-4 ho…
##  5 BART          349 surface… surfa…       4       1 2022-04-01 00:00:00 4-5 ho…
##  6 BART          349 surface… surfa…       5       1 2022-04-01 00:00:00 5-6 ho…
##  7 BART          342 surface… surfa…       6       1 2022-04-01 00:00:00 6-7 ho…
##  8 BART          342 surface… surfa…       7       1 2022-04-01 00:00:00 7-8 ho…
##  9 BART          342 surface… surfa…       8       1 2022-04-01 00:00:00 8-9 ho…
## 10 BART          334 surface… surfa…       9       1 2022-04-01 00:00:00 9-10 h…
## # … with 204,910 more rows, 5 more variables: time <dttm>, longitude <dbl>,
## #   latitude <dbl>, start_date <chr>, cycle <int>, and abbreviated variable
## #   names ¹​ensemble, ²​forecast_valid
## # ℹ Use `print(n = ...)` to see more rows, and `colnames()` to see all variable names
…
Stage 3 uses CF variable names and 1 hr interval (same at Stage 2)

weather_stage3 <- neon4cast::noaa_stage3()

## establishing connection to stage3/parquet at data.ecoforecast.org ...

## connected! Use dplyr functions to filter and summarise.
## Then, use collect() to read result into R

weather_stage3 |> 
dplyr::filter(site_id == "BART") |>
dplyr::collect()

## # A tibble: 4,036,448 × 12
##    site_id predicted variable height horizon ensem…¹ start_time          forec…²
##    <chr>       <dbl> <chr>    <chr>    <dbl>   <int> <dttm>              <chr>  
##  1 BART       95390. air_pre… surfa…       0       1 2020-09-25 00:00:00 anl    
##  2 BART       95362. air_pre… surfa…       0       2 2020-09-25 00:00:00 anl    
##  3 BART       95422. air_pre… surfa…       0       3 2020-09-25 00:00:00 anl    
##  4 BART       95377. air_pre… surfa…       0       4 2020-09-25 00:00:00 anl    
##  5 BART       95406. air_pre… surfa…       0       5 2020-09-25 00:00:00 anl    
##  6 BART       95320. air_pre… surfa…       0       6 2020-09-25 00:00:00 anl    
##  7 BART       95383. air_pre… surfa…       0       7 2020-09-25 00:00:00 anl    
##  8 BART       95422. air_pre… surfa…       0       8 2020-09-25 00:00:00 anl    
##  9 BART       95369. air_pre… surfa…       0       9 2020-09-25 00:00:00 anl    
## 10 BART       95377. air_pre… surfa…       0      10 2020-09-25 00:00:00 anl    
## # … with 4,036,438 more rows, 4 more variables: time <dttm>, longitude <dbl>,
## #   latitude <dbl>, start_date <date>, and abbreviated variable names
## #   ¹​ensemble, ²​forecast_valid
## # ℹ Use `print(n = ...)` to see more rows, and `colnames()` to see all variable names
…
