7 Submission instructions | NEON Ecological Forecasting Challenge
…
## 
## ── Column specification ────────────────────────────────────────────────────────
## cols(
##   time = col_date(format = ""),
##   ensemble = col_double(),
##   siteID = col_character(),
##   obs_flag = col_double(),
##   nee = col_double(),
##   le = col_double(),
##   vswc = col_double(),
##   forecast = col_double(),
##   data_assimilation = col_double()
## )

## # A tibble: 272,000 x 9
##    time       ensemble siteID obs_flag    nee     le   vswc forecast
##    <date>        <dbl> <chr>     <dbl>  <dbl>  <dbl>  <dbl>    <dbl>
##  1 2020-10-02        1 BART          2 -29.6  -114.  0.0220        1
##  2 2020-10-02        2 BART          2 -21.1    49.9 0.191         1
##  3 2020-10-02        3 BART          2  -5.70  344.  0.0792        1
##  4 2020-10-02        4 BART          2   4.76  547.  0.0982        1
##  5 2020-10-02        5 BART          2 -18.6    94.8 0.0883        1
##  6 2020-10-02        6 BART          2  -4.32  375.  0.192         1
##  7 2020-10-02        7 BART          2  -2.51  408.  0.127         1
##  8 2020-10-02        8 BART          2 -10.5   255.  0.198         1
##  9 2020-10-02        9 BART          2 -33.3  -184.  0.157         1
## 10 2020-10-02       10 BART          2 -10.7   250.  0.109         1
## # … with 271,990 more rows, and 1 more variable: data_assimilation <dbl>
…
Here is an example of a forecast file that meets the standard for the beetles theme

readr::read_csv("https://data.ecoforecast.org/forecasts/beetles/beetles-2020-EFI_avg_null.csv.gz")

## 
## ── Column specification ────────────────────────────────────────────────────────
## cols(
##   siteID = col_character(),
##   time = col_date(format = ""),
##   ensemble = col_double(),
##   richness = col_double(),
##   abundance = col_double()
## )

## # A tibble: 443,500 x 5
##    siteID time       ensemble richness abundance
##    <chr>  <date>        <dbl>    <dbl>     <dbl>
##  1 SJER   2020-01-06        1     2.31    0.0276
##  2 SJER   2020-01-06        2     4.95    0.0307
##  3 SJER   2020-01-06        3     1.64    0.0238
##  4 SJER   2020-01-06        4     2.99    0.0135
##  5 SJER   2020-01-06        5     2.72    0.0179
##  6 SJER   2020-01-06        6     2.67    0.0302
##  7 SJER   2020-01-06        7     4.49   -0.0105
##  8 SJER   2020-01-06        8     5.38    0.0169
##  9 SJER   2020-01-06        9     3.98    0.0153
## 10 SJER   2020-01-06       10     3.09    0.0111
## # … with 443,490 more rows
…
## 
## ── Column specification ────────────────────────────────────────────────────────
## cols(
##   time = col_date(format = ""),
##   ensemble = col_double(),
##   siteID = col_character(),
##   oxygen = col_double(),
##   temperature = col_double(),
##   obs_flag = col_double(),
##   forecast = col_double(),
##   data_assimilation = col_double()
## )

## # A tibble: 28,000 x 8
##    time       ensemble siteID oxygen temperature obs_flag forecast
##    <date>        <dbl> <chr>   <dbl>       <dbl>    <dbl>    <dbl>
##  1 2021-03-01        1 BARC     8.98        19.1        2        1
##  2 2021-03-01        2 BARC     8.67        21.6        2        1
##  3 2021-03-01        3 BARC     8.73        28.9        2        1
##  4 2021-03-01        4 BARC     8.12        28.2        2        1
##  5 2021-03-01        5 BARC     8.18        17.6        2        1
##  6 2021-03-01        6 BARC     8.70        34.1        2        1
##  7 2021-03-01        7 BARC     8.83        14.9        2        1
##  8 2021-03-01        8 BARC     8.25        23.7        2        1
##  9 2021-03-01        9 BARC     8.47        15.0        2        1
## 10 2021-03-01       10 BARC     8.68        26.3        2        1
## # … with 27,990 more rows, and 1 more variable: data_assimilation <dbl>
…
readr::read_csv("https://data.ecoforecast.org/forecasts/phenology/phenology-2021-02-23-UCSC_P_EDM.csv")

## 
## ── Column specification ────────────────────────────────────────────────────────
## cols(
##   time = col_date(format = ""),
##   siteID = col_character(),
##   obs_flag = col_double(),
##   forecast = col_double(),
##   data_assimilation = col_double(),
##   statistic = col_character(),
##   gcc_90 = col_double()
## )

## # A tibble: 560 x 7
##    time       siteID obs_flag forecast data_assimilation statistic gcc_90
##    <date>     <chr>     <dbl>    <dbl>             <dbl> <chr>      <dbl>
##  1 2021-02-23 BART          2        1                 1 mean      0.346 
##  2 2021-02-23 BART          2        1                 1 sd        0.0117
##  3 2021-02-23 CLBJ          2        1                 1 mean      0.325 
##  4 2021-02-23 CLBJ          2        1                 1 sd        0.0185
##  5 2021-02-23 DELA          2        1                 1 mean      0.354 
##  6 2021-02-23 DELA          2        1                 1 sd        0.0327
##  7 2021-02-23 GRSM          2        1                 1 mean      0.351 
##  8 2021-02-23 GRSM          2        1                 1 sd        0.0136
##  9 2021-02-23 HARV          2        1                 1 mean      0.331 
## 10 2021-02-23 HARV          2        1                 1 sd        0.0120
## # … with 550 more rows
…
readr::read_csv("https://data.ecoforecast.org/forecasts/ticks/ticks-2019-03-04-tickGlobalNull_RandomWalk.csv.gz")

## Warning: Missing column names filled in: 'X1' [1]

## Warning: 66500 parsing failures.
##  row                  col           expected             actual                                                                                             file
## 7001 amblyomma_americanum 1/0/T/F/TRUE/FALSE 4.00332129495972   'https://data.ecoforecast.org/forecasts/ticks/ticks-2019-03-04-tickGlobalNull_RandomWalk.csv.gz'
## 7002 amblyomma_americanum 1/0/T/F/TRUE/FALSE 0.0490100896296721 'https://data.ecoforecast.org/forecasts/ticks/ticks-2019-03-04-tickGlobalNull_RandomWalk.csv.gz'
## 7003 amblyomma_americanum 1/0/T/F/TRUE/FALSE 1.78175379939298   'https://data.ecoforecast.org/forecasts/ticks/ticks-2019-03-04-tickGlobalNull_RandomWalk.csv.gz'
## 7004 amblyomma_americanum 1/0/T/F/TRUE/FALSE 3.49221356823098   'https://data.ecoforecast.org/forecasts/ticks/ticks-2019-03-04-tickGlobalNull_RandomWalk.csv.gz'
## 7005 amblyomma_americanum 1/0/T/F/TRUE/FALSE 7.67000549354529   'https://data.ecoforecast.org/forecasts/ticks/ticks-2019-03-04-tickGlobalNull_RandomWalk.csv.gz'
## .... .................... .................. .................. ................................................................................................
## See problems(...) for more details.

## # A tibble: 77,000 x 10
##       X1 time       ixodes_scapularis plotID   siteID ensemble data_assimilation
##    <dbl> <date>                 <dbl> <chr>    <chr>     <dbl>             <dbl>
##  1     1 2019-03-04             0.341 BLAN_012 BLAN          1                 0
##  2     2 2019-03-11             0.286 BLAN_012 BLAN          1                 0
##  3     3 2019-03-18             0.372 BLAN_012 BLAN          1                 0
##  4     4 2019-03-25             0.349 BLAN_012 BLAN          1                 0
##  5     5 2019-04-01             0.368 BLAN_012 BLAN          1                 0
##  6     6 2019-04-08             0.443 BLAN_012 BLAN          1                 0
##  7     7 2019-04-15             0.455 BLAN_012 BLAN          1                 0
##  8     8 2019-04-22             0.367 BLAN_012 BLAN          1                 0
##  9     9 2019-04-29             0.368 BLAN_012 BLAN          1                 0
## 10    10 2019-05-06             0.327 BLAN_012 BLAN          1                 0
## # … with 76,990 more rows, and 3 more variables: forecast <dbl>,
## #   obs_flag <dbl>, amblyomma_americanum <lgl>
…
