5 Theme: Beetle Communities | NEON Ecological Forecasting Challenge
…
As part of our reproducible workflow, we provide an R script for producing derived tables of total abundance and richness from the raw NEON data. Our workflow gives preference to expert taxonomist identifications when available. Since expert taxonomy lags behind identifications from the sorting and pinning process, newer data will not be updated with expert taxonomy. The abundance table gives total abundance at each site for each week. The richness table gives an aggregate count of the number of ‘species’ at each site in each week.

Note: The table includes all data that NEON has collected and can be used for building and training models (new data will be posted after forecasts are submitted)

5.3.5 Target file

The code use to process the raw data to the evaluation data can be found here:
https://github.com/eco4cast/NEON-community-forecast/blob/master/02_targets.R

Here is the format of the target file

readr::read_csv("https://data.ecoforecast.org/targets/beetles/beetles-targets.csv.gz", guess_max = 1e6)

## # A tibble: 3,234 × 4
##    siteID time       abundance richness
##    <chr>  <date>         <dbl>    <dbl>
##  1 ABBY   2016-09-12    1.05         14
##  2 ABBY   2016-09-26    4.45         13
##  3 ABBY   2017-05-01    0.0554       10
##  4 ABBY   2017-05-15    0.180        19
##  5 ABBY   2017-05-29    0.425        19
##  6 ABBY   2017-06-12    0.25         18
##  7 ABBY   2017-06-26    0.271        22
##  8 ABBY   2017-07-10    0.148        15
##  9 ABBY   2017-07-24    0.105        14
## 10 ABBY   2017-08-07    0.116        16
## # … with 3,224 more rows
## # ℹ Use `print(n = ...)` to see more rows
…
