4 Theme: Phenology | NEON Ecological Forecasting Challenge
…
4.3.4 Target file

time: YYYY-MM-DD

statistic: variable name (“mean” or “sd”)

gcc_90:

siteID: NEON site code (e.g., BART)

Here is the format of the target file

readr::read_csv("https://data.ecoforecast.org/targets/ticks/ticks-targets.csv.gz", guess_max = 1e6)

## # A tibble: 3,969 x 21
##     Year epiWeek yearWeek plotID   siteID nlcdClass       decimalLatitude
##    <dbl> <chr>      <dbl> <chr>    <chr>  <chr>                     <dbl>
##  1  2015 37        201537 BLAN_005 BLAN   deciduousForest            39.1
##  2  2015 38        201538 BLAN_005 BLAN   deciduousForest            39.1
##  3  2015 39        201539 BLAN_005 BLAN   deciduousForest            39.1
##  4  2015 40        201540 BLAN_005 BLAN   deciduousForest            39.1
##  5  2015 41        201541 BLAN_005 BLAN   deciduousForest            39.1
##  6  2015 42        201542 BLAN_005 BLAN   deciduousForest            39.1
##  7  2015 43        201543 BLAN_005 BLAN   deciduousForest            39.1
##  8  2015 44        201544 BLAN_005 BLAN   deciduousForest            39.1
##  9  2015 45        201545 BLAN_005 BLAN   deciduousForest            39.1
## 10  2015 46        201546 BLAN_005 BLAN   deciduousForest            39.1
## # … with 3,959 more rows, and 14 more variables: decimalLongitude <dbl>,
## #   elevation <dbl>, totalSampledArea <dbl>, amblyomma_americanum <dbl>,
## #   ixodes_scapularis <dbl>, time <date>, RHMin_precent <dbl>,
## #   RHMin_variance <dbl>, RHMax_precent <dbl>, RHMax_variance <dbl>,
## #   airTempMin_degC <dbl>, airTempMin_variance <dbl>, airTempMax_degC <dbl>,
## #   airTempMax_variance <dbl>
…
