2 Theme: Carbon and Water Fluxes | NEON Ecological Forecasting Challenge
…
observation: value for variable

sd_intercept: intercept in the nee observation uncertainty standard deviation

sd_slopeP: slope in the relationship between nee and observation uncertainty standard deviation for positive values of nee

sd_slopeN: slope in the relationship between nee and observation uncertainty standard deviation for negative values of variable

The observation uncertainty estimates for nee and le are derived from the PEcAN project and can be used by sd <- sd_intercept + sd_slopeP * observation. They are not supplied by NEON.

Here is the download link and format of the terrestrial_30min target file:

readr::read_csv("https://data.ecoforecast.org/neon4cast-targets/terrestrial_30min/terrestrial_30min-targets.csv.gz", guess_max = 1e6)

## # A tibble: 1,927,280 × 7
##    time                site_id variable observed sd_intercept sd_slopeP sd_slo…¹
##    <dttm>              <chr>   <chr>       <dbl>        <dbl>     <dbl>    <dbl>
##  1 2017-02-01 10:00:00 BART    nee        -0.574         1.14     0.205   -0.132
##  2 2017-02-01 10:30:00 BART    nee         0.297         1.14     0.205   -0.132
##  3 2017-02-01 11:00:00 BART    nee        NA             1.14     0.205   -0.132
##  4 2017-02-01 11:30:00 BART    nee        NA             1.14     0.205   -0.132
##  5 2017-02-01 12:00:00 BART    nee         0.224         1.14     0.205   -0.132
##  6 2017-02-01 12:30:00 BART    nee         2.12          1.14     0.205   -0.132
##  7 2017-02-01 13:00:00 BART    nee         2.18          1.14     0.205   -0.132
##  8 2017-02-01 13:30:00 BART    nee        NA             1.14     0.205   -0.132
##  9 2017-02-01 14:00:00 BART    nee        NA             1.14     0.205   -0.132
## 10 2017-02-01 14:30:00 BART    nee        NA             1.14     0.205   -0.132
## # … with 1,927,270 more rows, and abbreviated variable name ¹​sd_slopeN
## # ℹ Use `print(n = ...)` to see more rows
…
To evaluate the models that produce daily flux forecasts, we select only days with at least 24 of 48 half hours that pass the quality control flags. For these days, we average the half-hours and convert carbon to daily units (gC/m2/day). The daily data table has the following columns.

time: YYYY-MM-DD (the day is determined using UTC time)

site_id: NEON site code (e.g., BART)

variable: nee (g C m-2 day-1) or le (W m-2)

observed: value for variable

Here is the download link and format of the terrestrial_daily target file

readr::read_csv("https://data.ecoforecast.org/neon4cast-targets/terrestrial_daily/terrestrial_daily-targets.csv.gz", guess_max = 1e6)

## # A tibble: 40,160 × 4
##    time       site_id variable observed
##    <date>     <chr>   <chr>       <dbl>
##  1 2017-02-01 BART    le             NA
##  2 2017-02-01 BART    nee            NA
##  3 2017-02-01 CLBJ    le             NA
##  4 2017-02-01 CLBJ    nee            NA
##  5 2017-02-01 KONZ    le             NA
##  6 2017-02-01 KONZ    nee            NA
##  7 2017-02-01 ORNL    le             NA
##  8 2017-02-01 ORNL    nee            NA
##  9 2017-02-01 OSBS    le             NA
## 10 2017-02-01 OSBS    nee            NA
## # … with 40,150 more rows
## # ℹ Use `print(n = ...)` to see more rows
…
